…
Rules of a tidy data frame: variables are columns, observations are rows, and values are cells. Source: R for Data Science (2e) by H. Wickham, M. Çetinkaya-Rundel and G. Grolemund.

Filter observations

Filtering observations based on their values can be done with the filter() function. This function works on both quantitative and qualitative variables:

# filter observations based on a quantitative variable
filter(dat, body_mass_g > 4000)

## # A tibble: 172 × 4
##    species body_mass_g sex    year
##    <fct>         <int> <fct> <int>
##  1 Adelie         4675 male   2007
##  2 Adelie         4250 <NA>   2007
##  3 Adelie         4400 male   2007
##  4 Adelie         4500 male   2007
##  5 Adelie         4200 male   2007
##  6 Adelie         4150 male   2007
##  7 Adelie         4650 male   2007
##  8 Adelie         4400 male   2007
##  9 Adelie         4600 male   2007
## 10 Adelie         4150 male   2007
## # ℹ 162 more rows

# filter observations based on a qualitative variable
filter(dat, sex == "female")

## # A tibble: 165 × 4
##    species body_mass_g sex     year
##    <fct>         <int> <fct>  <int>
##  1 Adelie         3800 female  2007
##  2 Adelie         3250 female  2007
##  3 Adelie         3450 female  2007
##  4 Adelie         3625 female  2007
##  5 Adelie         3200 female  2007
##  6 Adelie         3700 female  2007
##  7 Adelie         3450 female  2007
##  8 Adelie         3325 female  2007
##  9 Adelie         3400 female  2007
## 10 Adelie         3800 female  2007
## # ℹ 155 more rows

You can combine several conditions with & (if the conditions must be cumulative) or | (if the conditions are alternatives), for instance:

# filter observations based on 2 cumulative conditions
filter(dat, body_mass_g > 4000 & sex == "female")

## # A tibble: 58 × 4
##    species body_mass_g sex     year
##    <fct>         <int> <fct>  <int>
##  1 Gentoo         4500 female  2007
##  2 Gentoo         4450 female  2007
##  3 Gentoo         4550 female  2007
##  4 Gentoo         4800 female  2007
##  5 Gentoo         4400 female  2007
##  6 Gentoo         4650 female  2007
##  7 Gentoo         4650 female  2007
##  8 Gentoo         4200 female  2007
##  9 Gentoo         4150 female  2007
## 10 Gentoo         4800 female  2007
## # ℹ 48 more rows
…
As you can see from the code above, the filter() functions requires the name of the data frame as first argument, then the condition (with the usual logical operators >, <, >=, <=, ==, !=, %in%, etc.) as second argument.

Specifying the name of the data frame as first argument is required for all functions presented in this list. However, there is a workaround to specifying the data frame’s name inside the functions: the pipe operator (|> or %>%).1

The pipe operator allows to perform a sequence of several operations, that is, chain a sequence of calculations together. It is particularly useful when you are performing several operations on a data frame, and you do not want to save the output at each intermediate step. We will see below how to use the pipe operator with several operations, but for now I would like to introduce it with only one operation at a time.

As you can see with the filter() function, the pipe operator is not compulsory. However, I recommend it so much (even to beginners) for its easy of use, convenience, code readability and popularity that from now on functions available in {dplyr} will be presented together with the pipe operator.

So with the pipe operator, the code above becomes:

# filter observations based on a quantitative variable
dat |>
  filter(body_mass_g > 4000)

## # A tibble: 172 × 4
##    species body_mass_g sex    year
##    <fct>         <int> <fct> <int>
##  1 Adelie         4675 male   2007
##  2 Adelie         4250 <NA>   2007
##  3 Adelie         4400 male   2007
##  4 Adelie         4500 male   2007
##  5 Adelie         4200 male   2007
##  6 Adelie         4150 male   2007
##  7 Adelie         4650 male   2007
##  8 Adelie         4400 male   2007
##  9 Adelie         4600 male   2007
## 10 Adelie         4150 male   2007
## # ℹ 162 more rows

# filter observations based on a qualitative variable
dat |>
  filter(sex == "female")

## # A tibble: 165 × 4
##    species body_mass_g sex     year
##    <fct>         <int> <fct>  <int>
##  1 Adelie         3800 female  2007
##  2 Adelie         3250 female  2007
##  3 Adelie         3450 female  2007
##  4 Adelie         3625 female  2007
##  5 Adelie         3200 female  2007
##  6 Adelie         3700 female  2007
##  7 Adelie         3450 female  2007
##  8 Adelie         3325 female  2007
##  9 Adelie         3400 female  2007
## 10 Adelie         3800 female  2007
## # ℹ 155 more rows

# filter observations based on 2 cumulative conditions
dat |>
  filter(body_mass_g > 4000 & sex == "female")

## # A tibble: 58 × 4
##    species body_mass_g sex     year
##    <fct>         <int> <fct>  <int>
##  1 Gentoo         4500 female  2007
##  2 Gentoo         4450 female  2007
##  3 Gentoo         4550 female  2007
##  4 Gentoo         4800 female  2007
##  5 Gentoo         4400 female  2007
##  6 Gentoo         4650 female  2007
##  7 Gentoo         4650 female  2007
##  8 Gentoo         4200 female  2007
##  9 Gentoo         4150 female  2007
## 10 Gentoo         4800 female  2007
## # ℹ 48 more rows
…
Based on their values

To extract observations based on values of a variable, use:

slice_min() to select rows with the lowest values (with a defined proportion), and

slice_max() to select rows with the highest values (with a defined proportion).

# extract observations with 25% lowest body mass
dat |>
  slice_min(body_mass_g, prop = 0.25)

## # A tibble: 89 × 4
##    species   body_mass_g sex     year
##    <fct>           <int> <fct>  <int>
##  1 Chinstrap        2700 female  2008
##  2 Adelie           2850 female  2008
##  3 Adelie           2850 female  2008
##  4 Adelie           2900 female  2008
##  5 Adelie           2900 female  2008
##  6 Adelie           2900 female  2009
##  7 Chinstrap        2900 female  2007
##  8 Adelie           2925 female  2009
##  9 Adelie           2975 <NA>    2007
## 10 Adelie           3000 female  2007
## # ℹ 79 more rows

# extract observations with 25% highest body mass
dat |>
  slice_max(body_mass_g, prop = 0.25)

## # A tibble: 90 × 4
##    species body_mass_g sex    year
##    <fct>         <int> <fct> <int>
##  1 Gentoo         6300 male   2007
##  2 Gentoo         6050 male   2007
##  3 Gentoo         6000 male   2008
##  4 Gentoo         6000 male   2009
##  5 Gentoo         5950 male   2008
##  6 Gentoo         5950 male   2009
##  7 Gentoo         5850 male   2007
##  8 Gentoo         5850 male   2007
##  9 Gentoo         5850 male   2009
## 10 Gentoo         5800 male   2008
## # ℹ 80 more rows
…
## # A tibble: 3 × 4
##   species   body_mass_g sex     year
##   <fct>           <int> <fct>  <int>
## 1 Adelie           3450 female  2007
## 2 Chinstrap        3675 female  2009
## 3 Gentoo           4500 female  2007

# random sample of half of the rows
dat |>
  sample_frac(size = 1 / 2)

## # A tibble: 172 × 4
##    species   body_mass_g sex     year
##    <fct>           <int> <fct>  <int>
##  1 Adelie           4150 male    2008
##  2 Gentoo           5800 male    2008
##  3 Adelie           3650 male    2009
##  4 Adelie           3500 male    2009
##  5 Adelie           3450 female  2007
##  6 Adelie           4300 male    2009
##  7 Chinstrap        3400 female  2008
##  8 Adelie           3950 male    2007
##  9 Chinstrap        3325 female  2009
## 10 Adelie           3950 male    2008
## # ℹ 162 more rows
…
## # A tibble: 3 × 4
##   species body_mass_g sex     year
##   <fct>         <int> <fct>  <int>
## 1 Adelie         3200 female  2007
## 2 Adelie         3800 female  2007
## 3 Gentoo         4800 female  2007

# random sample of half of the rows
dat |>
  slice_sample(prop = 1 / 2)

## # A tibble: 172 × 4
##    species body_mass_g sex     year
##    <fct>         <int> <fct>  <int>
##  1 Adelie         3900 male    2009
##  2 Adelie         3275 female  2009
##  3 Gentoo         5050 male    2008
##  4 Gentoo         4700 female  2009
##  5 Gentoo         4600 female  2008
##  6 Gentoo         4875 <NA>    2009
##  7 Adelie         3700 <NA>    2007
##  8 Gentoo         3950 female  2008
##  9 Gentoo         4550 female  2007
## 10 Adelie         3500 female  2008
## # ℹ 162 more rows

Sort observations

Sorting observations can be done with the arrange() function:

# sort observations based on body mass (ascending order)
dat |>
  arrange(body_mass_g)

## # A tibble: 344 × 4
##    species   body_mass_g sex     year
##    <fct>           <int> <fct>  <int>
##  1 Chinstrap        2700 female  2008
##  2 Adelie           2850 female  2008
##  3 Adelie           2850 female  2008
##  4 Adelie           2900 female  2008
##  5 Adelie           2900 female  2008
##  6 Adelie           2900 female  2009
##  7 Chinstrap        2900 female  2007
##  8 Adelie           2925 female  2009
##  9 Adelie           2975 <NA>    2007
## 10 Adelie           3000 female  2007
## # ℹ 334 more rows

By default, arrange() uses the ascending order. To sort in descending order, use desc() inside arrange():

# sort observations based on body mass (descending order)
dat |>
  arrange(desc(body_mass_g))

## # A tibble: 344 × 4
##    species body_mass_g sex    year
##    <fct>         <int> <fct> <int>
##  1 Gentoo         6300 male   2007
##  2 Gentoo         6050 male   2007
##  3 Gentoo         6000 male   2008
##  4 Gentoo         6000 male   2009
##  5 Gentoo         5950 male   2008
##  6 Gentoo         5950 male   2009
##  7 Gentoo         5850 male   2007
##  8 Gentoo         5850 male   2007
##  9 Gentoo         5850 male   2009
## 10 Gentoo         5800 male   2008
## # ℹ 334 more rows

As with filter(), arrange() can be used for several variables and works both on quantitative and qualitative variables:

# sort observations based on two variables
dat |>
  arrange(sex, body_mass_g)

## # A tibble: 344 × 4
##    species   body_mass_g sex     year
##    <fct>           <int> <fct>  <int>
##  1 Chinstrap        2700 female  2008
##  2 Adelie           2850 female  2008
##  3 Adelie           2850 female  2008
##  4 Adelie           2900 female  2008
##  5 Adelie           2900 female  2008
##  6 Adelie           2900 female  2009
##  7 Chinstrap        2900 female  2007
##  8 Adelie           2925 female  2009
##  9 Adelie           3000 female  2007
## 10 Adelie           3000 female  2009
## # ℹ 334 more rows
…
Note that if the qualitative variable is defined as an ordered factor, the sorting is based on level order, not alphabetical order!

Select variables

Selecting variables can be done with the select() function, based on:

the position of the variable(s), or

the name(s) of the variable(s).

# select variables by their positions
dat |>
  select(c(2, 4))

## # A tibble: 344 × 2
##    body_mass_g  year
##          <int> <int>
##  1        3750  2007
##  2        3800  2007
##  3        3250  2007
##  4          NA  2007
##  5        3450  2007
##  6        3650  2007
##  7        3625  2007
##  8        4675  2007
##  9        3475  2007
## 10        4250  2007
## # ℹ 334 more rows

# select variables by their names
dat |>
  select(body_mass_g, year)

## # A tibble: 344 × 2
##    body_mass_g  year
##          <int> <int>
##  1        3750  2007
##  2        3800  2007
##  3        3250  2007
##  4          NA  2007
##  5        3450  2007
##  6        3650  2007
##  7        3625  2007
##  8        4675  2007
##  9        3475  2007
## 10        4250  2007
## # ℹ 334 more rows

Note that it is also possible to remove variables. For this, use the - sign in front of their positions or names:

# remove variables by their positions
dat |>
  select(-c(2, 4))

## # A tibble: 344 × 2
##    species sex   
##    <fct>   <fct> 
##  1 Adelie  male  
##  2 Adelie  female
##  3 Adelie  female
##  4 Adelie  <NA>  
##  5 Adelie  female
##  6 Adelie  male  
##  7 Adelie  female
##  8 Adelie  male  
##  9 Adelie  <NA>  
## 10 Adelie  <NA>  
## # ℹ 334 more rows

# remove variables by their names
dat |>
  select(-c(body_mass_g, year))

## # A tibble: 344 × 2
##    species sex   
##    <fct>   <fct> 
##  1 Adelie  male  
##  2 Adelie  female
##  3 Adelie  female
##  4 Adelie  <NA>  
##  5 Adelie  female
##  6 Adelie  male  
##  7 Adelie  female
##  8 Adelie  male  
##  9 Adelie  <NA>  
## 10 Adelie  <NA>  
## # ℹ 334 more rows

It is also possible to select variables with a sequence of names:

# select all variables from species to sex
dat |>
  select(species:sex)

## # A tibble: 344 × 3
##    species body_mass_g sex   
##    <fct>         <int> <fct> 
##  1 Adelie         3750 male  
##  2 Adelie         3800 female
##  3 Adelie         3250 female
##  4 Adelie           NA <NA>  
##  5 Adelie         3450 female
##  6 Adelie         3650 male  
##  7 Adelie         3625 female
##  8 Adelie         4675 male  
##  9 Adelie         3475 <NA>  
## 10 Adelie         4250 <NA>  
## # ℹ 334 more rows

Last but not least, select() can also be used as an easy way to rearrange columns in the desired order:

# put sex as first column, then all the others
dat |>
  select(sex, species:year)

## # A tibble: 344 × 4
##    sex    species body_mass_g  year
##    <fct>  <fct>         <int> <int>
##  1 male   Adelie         3750  2007
##  2 female Adelie         3800  2007
##  3 female Adelie         3250  2007
##  4 <NA>   Adelie           NA  2007
##  5 female Adelie         3450  2007
##  6 male   Adelie         3650  2007
##  7 female Adelie         3625  2007
##  8 male   Adelie         4675  2007
##  9 <NA>   Adelie         3475  2007
## 10 <NA>   Adelie         4250  2007
## # ℹ 334 more rows

Rename variables

To rename variables, use the rename() function:

# rename variables
dat |>
  rename(
    body_mass = body_mass_g, # rename body_mass_g into body_mass
    study_year = year # rename year into study_year
  )

## # A tibble: 344 × 4
##    species body_mass sex    study_year
##    <fct>       <int> <fct>       <int>
##  1 Adelie       3750 male         2007
##  2 Adelie       3800 female       2007
##  3 Adelie       3250 female       2007
##  4 Adelie         NA <NA>         2007
##  5 Adelie       3450 female       2007
##  6 Adelie       3650 male         2007
##  7 Adelie       3625 female       2007
##  8 Adelie       4675 male         2007
##  9 Adelie       3475 <NA>         2007
## 10 Adelie       4250 <NA>         2007
## # ℹ 334 more rows
…
Create or modify variables

You can create or modify certain variables of the data frame with mutate(), based on:

another variable, or

a vector of your choice.

# create a new variable based on an existing one
dat |>
  mutate(
    body_mass_kg = body_mass_g / 1000
  )

## # A tibble: 344 × 5
##    species body_mass_g sex     year body_mass_kg
##    <fct>         <int> <fct>  <int>        <dbl>
##  1 Adelie         3750 male    2007         3.75
##  2 Adelie         3800 female  2007         3.8 
##  3 Adelie         3250 female  2007         3.25
##  4 Adelie           NA <NA>    2007        NA   
##  5 Adelie         3450 female  2007         3.45
##  6 Adelie         3650 male    2007         3.65
##  7 Adelie         3625 female  2007         3.62
##  8 Adelie         4675 male    2007         4.68
##  9 Adelie         3475 <NA>    2007         3.48
## 10 Adelie         4250 <NA>    2007         4.25
## # ℹ 334 more rows

# create a new variable from a vector of your choice
dat |>
  mutate(
    ID = 1:nrow(dat)
  )

## # A tibble: 344 × 5
##    species body_mass_g sex     year    ID
##    <fct>         <int> <fct>  <int> <int>
##  1 Adelie         3750 male    2007     1
##  2 Adelie         3800 female  2007     2
##  3 Adelie         3250 female  2007     3
##  4 Adelie           NA <NA>    2007     4
##  5 Adelie         3450 female  2007     5
##  6 Adelie         3650 male    2007     6
##  7 Adelie         3625 female  2007     7
##  8 Adelie         4675 male    2007     8
##  9 Adelie         3475 <NA>    2007     9
## 10 Adelie         4250 <NA>    2007    10
## # ℹ 334 more rows
…
A very common data transformation is the well known “if else” technique. This technique is usually used to create, from an existing variable, another variable which can take two levels.

Suppose that we want to create a new variable called body_mass_cat, which takes the value “High” when body_mass_g is equal or greater than a certain threshold, “Low” otherwise. This transformation can be performed with the combination of mutate() and if_else():

# if else
dat |>
  mutate(
    body_mass_cat = if_else(body_mass_g >= 4000, # condition
      "High", # output if condition is true
      "Low" # output if condition is false
    )
  )

## # A tibble: 344 × 5
##    species body_mass_g sex     year body_mass_cat
##    <fct>         <int> <fct>  <int> <chr>        
##  1 Adelie         3750 male    2007 Low          
##  2 Adelie         3800 female  2007 Low          
##  3 Adelie         3250 female  2007 Low          
##  4 Adelie           NA <NA>    2007 <NA>         
##  5 Adelie         3450 female  2007 Low          
##  6 Adelie         3650 male    2007 Low          
##  7 Adelie         3625 female  2007 Low          
##  8 Adelie         4675 male    2007 High         
##  9 Adelie         3475 <NA>    2007 Low          
## 10 Adelie         4250 <NA>    2007 High         
## # ℹ 334 more rows
…
With nested if else functions, here is the code we would need to write:

# nested if else
dat |>
  mutate(
    body_mass_cat = if_else(body_mass_g < 3500, # first condition
      "Low", # output if first condition is true
      if_else(body_mass_g > 4750, # second condition when first condition is false
        "High", # output when second condition is true
        "Medium" # output when second condition is false
      )
    )
  )

## # A tibble: 344 × 5
##    species body_mass_g sex     year body_mass_cat
##    <fct>         <int> <fct>  <int> <chr>        
##  1 Adelie         3750 male    2007 Medium       
##  2 Adelie         3800 female  2007 Medium       
##  3 Adelie         3250 female  2007 Low          
##  4 Adelie           NA <NA>    2007 <NA>         
##  5 Adelie         3450 female  2007 Low          
##  6 Adelie         3650 male    2007 Medium       
##  7 Adelie         3625 female  2007 Medium       
##  8 Adelie         4675 male    2007 Medium       
##  9 Adelie         3475 <NA>    2007 Low          
## 10 Adelie         4250 <NA>    2007 Medium       
## # ℹ 334 more rows
…
As you can see from the results above, it works. However, you will concede that it is easy to make coding mistakes, and that the code is not easy to write nor to read.

To improve this workflow, we now use the case when technique:

# case when, without a default option
dat |>
  mutate(
    body_mass_cat = case_when(
      body_mass_g < 3500 ~ "Low",
      body_mass_g >= 3500 & body_mass_g <= 4750 ~ "Medium",
      body_mass_g > 4750 ~ "High"
    )
  )

## # A tibble: 344 × 5
##    species body_mass_g sex     year body_mass_cat
##    <fct>         <int> <fct>  <int> <chr>        
##  1 Adelie         3750 male    2007 Medium       
##  2 Adelie         3800 female  2007 Medium       
##  3 Adelie         3250 female  2007 Low          
##  4 Adelie           NA <NA>    2007 <NA>         
##  5 Adelie         3450 female  2007 Low          
##  6 Adelie         3650 male    2007 Medium       
##  7 Adelie         3625 female  2007 Medium       
##  8 Adelie         4675 male    2007 Medium       
##  9 Adelie         3475 <NA>    2007 Low          
## 10 Adelie         4250 <NA>    2007 Medium       
## # ℹ 334 more rows
…
