…
Street trees and environmental data

Permitted events (historical)

A typical call looks like this:

library(nycOpenData)

nyc_311(
  limit = 1000,
  filters = list(borough = "BROOKLYN")
)

## # A tibble: 1,000 × 40
##    unique_key created_date          agency agency_name complaint_type descriptor
##    <chr>      <chr>                 <chr>  <chr>       <chr>          <chr>     
##  1 67613985   2026-01-26T02:06:05.… NYPD   New York C… Noise - Resid… Banging/P…
##  2 67609553   2026-01-26T02:02:09.… NYPD   New York C… Noise - Resid… Banging/P…
##  3 67610990   2026-01-26T01:58:58.… NYPD   New York C… Illegal Parki… Blocked H…
##  4 67615428   2026-01-26T01:56:49.… NYPD   New York C… Noise - Resid… Banging/P…
##  5 67609568   2026-01-26T01:48:16.… NYPD   New York C… Noise - Resid… Loud Musi…
##  6 67612476   2026-01-26T01:47:10.… NYPD   New York C… Noise - Resid… Loud Musi…
##  7 67614152   2026-01-26T01:46:26.… DSNY   Department… Snow or Ice    Snow Trac…
##  8 67614054   2026-01-26T01:44:50.… DSNY   Department… Dirty Conditi… Trash     
##  9 67606570   2026-01-26T01:41:32.… NYPD   New York C… Noise - Resid… Banging/P…
## 10 67610091   2026-01-26T01:35:51.… NYPD   New York C… Noise - Vehic… Car/Truck…
## # ℹ 990 more rows
## # ℹ 34 more variables: location_type <chr>, incident_zip <chr>,
## #   incident_address <chr>, street_name <chr>, cross_street_1 <chr>,
## #   cross_street_2 <chr>, intersection_street_1 <chr>,
## #   intersection_street_2 <chr>, address_type <chr>, city <chr>,
## #   landmark <chr>, status <chr>, community_board <chr>,
## #   council_district <chr>, police_precinct <chr>, bbl <chr>, borough <chr>, …
…
