…
To convince you that this is a real database, we will now answer some simple questions.

First of all, we load the tidyverse package:

library(tidyverse)

Which country has the largest number of wins?

drivers_F1 %>%
  group_by(Nationality) %>%
  summarise(championship_country = sum(as.double(`Drivers' Championships`))) %>%
  arrange(desc(championship_country))

## # A tibble: 48 × 2
##    Nationality    championship_country
##    <chr>                         <dbl>
##  1 United Kingdom                   20
##  2 Germany                          12
##  3 Brazil                            8
##  4 Argentina                         5
##  5 Australia                         4
##  6 Austria                           4
##  7 Finland                           4
##  8 France                            4
##  9 Italy                             3
## 10 Netherlands                       2
## # … with 38 more rows

Who has the most Championships?

drivers_F1 %>%
  group_by(`Driver Name`) %>%
  summarise(championship_pilot = sum(as.double(`Drivers' Championships`))) %>%
  arrange(desc(championship_pilot))

## # A tibble: 868 × 2
##    `Driver Name`       championship_pilot
##    <chr>                            <dbl>
##  1 Lewis Hamilton~                      7
##  2 Michael Schumacher^                  7
##  3 Juan Manuel Fangio^                  5
##  4 Alain Prost^                         4
##  5 Sebastian Vettel^                    4
##  6 Ayrton Senna^                        3
##  7 Jack Brabham^                        3
##  8 Jackie Stewart^                      3
##  9 Nelson Piquet^                       3
## 10 Niki Lauda^                          3
## # … with 858 more rows
…
